lab7_skeleton_restored/simulation/qsim/skeleton.msim.vcd
$comment
	File created using the following command:
		vcd file skeleton.msim.vcd -direction
$end
$date
	Thu Nov 29 19:42:00 2018
$end
$version
	ModelSim Version 10.5b
$end
$timescale
	1ps
$end

$scope module screen_row_counter_vlg_vec_tst $end
$var reg 1 ! clock $end
$var reg 1 " start $end
$var wire 1 # countreg_out [31] $end
$var wire 1 $ countreg_out [30] $end
$var wire 1 % countreg_out [29] $end
$var wire 1 & countreg_out [28] $end
$var wire 1 ' countreg_out [27] $end
$var wire 1 ( countreg_out [26] $end
$var wire 1 ) countreg_out [25] $end
$var wire 1 * countreg_out [24] $end
$var wire 1 + countreg_out [23] $end
$var wire 1 , countreg_out [22] $end
$var wire 1 - countreg_out [21] $end
$var wire 1 . countreg_out [20] $end
$var wire 1 / countreg_out [19] $end
$var wire 1 0 countreg_out [18] $end
$var wire 1 1 countreg_out [17] $end
$var wire 1 2 countreg_out [16] $end
$var wire 1 3 countreg_out [15] $end
$var wire 1 4 countreg_out [14] $end
$var wire 1 5 countreg_out [13] $end
$var wire 1 6 countreg_out [12] $end
$var wire 1 7 countreg_out [11] $end
$var wire 1 8 countreg_out [10] $end
$var wire 1 9 countreg_out [9] $end
$var wire 1 : countreg_out [8] $end
$var wire 1 ; countreg_out [7] $end
$var wire 1 < countreg_out [6] $end
$var wire 1 = countreg_out [5] $end
$var wire 1 > countreg_out [4] $end
$var wire 1 ? countreg_out [3] $end
$var wire 1 @ countreg_out [2] $end
$var wire 1 A countreg_out [1] $end
$var wire 1 B countreg_out [0] $end
$var wire 1 C finish $end

$scope module i1 $end
$var wire 1 D gnd $end
$var wire 1 E vcc $end
$var wire 1 F unknown $end
$var tri1 1 G devclrn $end
$var tri1 1 H devpor $end
$var tri1 1 I devoe $end
$var wire 1 J finish~output_o $end
$var wire 1 K countreg_out[0]~output_o $end
$var wire 1 L countreg_out[1]~output_o $end
$var wire 1 M countreg_out[2]~output_o $end
$var wire 1 N countreg_out[3]~output_o $end
$var wire 1 O countreg_out[4]~output_o $end
$var wire 1 P countreg_out[5]~output_o $end
$var wire 1 Q countreg_out[6]~output_o $end
$var wire 1 R countreg_out[7]~output_o $end
$var wire 1 S countreg_out[8]~output_o $end
$var wire 1 T countreg_out[9]~output_o $end
$var wire 1 U countreg_out[10]~output_o $end
$var wire 1 V countreg_out[11]~output_o $end
$var wire 1 W countreg_out[12]~output_o $end
$var wire 1 X countreg_out[13]~output_o $end
$var wire 1 Y countreg_out[14]~output_o $end
$var wire 1 Z countreg_out[15]~output_o $end
$var wire 1 [ countreg_out[16]~output_o $end
$var wire 1 \ countreg_out[17]~output_o $end
$var wire 1 ] countreg_out[18]~output_o $end
$var wire 1 ^ countreg_out[19]~output_o $end
$var wire 1 _ countreg_out[20]~output_o $end
$var wire 1 ` countreg_out[21]~output_o $end
$var wire 1 a countreg_out[22]~output_o $end
$var wire 1 b countreg_out[23]~output_o $end
$var wire 1 c countreg_out[24]~output_o $end
$var wire 1 d countreg_out[25]~output_o $end
$var wire 1 e countreg_out[26]~output_o $end
$var wire 1 f countreg_out[27]~output_o $end
$var wire 1 g countreg_out[28]~output_o $end
$var wire 1 h countreg_out[29]~output_o $end
$var wire 1 i countreg_out[30]~output_o $end
$var wire 1 j countreg_out[31]~output_o $end
$var wire 1 k clock~input_o $end
$var wire 1 l clock~inputclkctrl_outclk $end
$var wire 1 m start~input_o $end
$var wire 1 n countreg[0]~31_combout $end
$var wire 1 o countreg~1_combout $end
$var wire 1 p countreg~2_combout $end
$var wire 1 q countreg~3_combout $end
$var wire 1 r countreg~4_combout $end
$var wire 1 s countreg~5_combout $end
$var wire 1 t countreg~6_combout $end
$var wire 1 u countreg~7_combout $end
$var wire 1 v countreg~8_combout $end
$var wire 1 w countreg~9_combout $end
$var wire 1 x countreg~10_combout $end
$var wire 1 y countreg~11_combout $end
$var wire 1 z countreg~12_combout $end
$var wire 1 { countreg~13_combout $end
$var wire 1 | countreg~14_combout $end
$var wire 1 } countreg~15_combout $end
$var wire 1 ~ countreg~16_combout $end
$var wire 1 !! countreg~17_combout $end
$var wire 1 "! countreg~18_combout $end
$var wire 1 #! countreg~19_combout $end
$var wire 1 $! countreg~20_combout $end
$var wire 1 %! countreg~21_combout $end
$var wire 1 &! countreg~22_combout $end
$var wire 1 '! countreg~23_combout $end
$var wire 1 (! countreg~24_combout $end
$var wire 1 )! countreg~25_combout $end
$var wire 1 *! countreg~26_combout $end
$var wire 1 +! countreg~27_combout $end
$var wire 1 ,! countreg~28_combout $end
$var wire 1 -! countreg~0_combout $end
$var wire 1 .! countreg~29_combout $end
$var wire 1 /! countreg~30_combout $end
$var wire 1 0! countreg [31] $end
$var wire 1 1! countreg [30] $end
$var wire 1 2! countreg [29] $end
$var wire 1 3! countreg [28] $end
$var wire 1 4! countreg [27] $end
$var wire 1 5! countreg [26] $end
$var wire 1 6! countreg [25] $end
$var wire 1 7! countreg [24] $end
$var wire 1 8! countreg [23] $end
$var wire 1 9! countreg [22] $end
$var wire 1 :! countreg [21] $end
$var wire 1 ;! countreg [20] $end
$var wire 1 <! countreg [19] $end
$var wire 1 =! countreg [18] $end
$var wire 1 >! countreg [17] $end
$var wire 1 ?! countreg [16] $end
$var wire 1 @! countreg [15] $end
$var wire 1 A! countreg [14] $end
$var wire 1 B! countreg [13] $end
$var wire 1 C! countreg [12] $end
$var wire 1 D! countreg [11] $end
$var wire 1 E! countreg [10] $end
$var wire 1 F! countreg [9] $end
$var wire 1 G! countreg [8] $end
$var wire 1 H! countreg [7] $end
$var wire 1 I! countreg [6] $end
$var wire 1 J! countreg [5] $end
$var wire 1 K! countreg [4] $end
$var wire 1 L! countreg [3] $end
$var wire 1 M! countreg [2] $end
$var wire 1 N! countreg [1] $end
$var wire 1 O! countreg [0] $end
$upscope $end
$upscope $end
$enddefinitions $end
#0
$dumpvars
0!
0"
1B
1A
1@
1?
0>
0=
0<
0;
0:
09
08
07
06
05
04
03
02
01
00
0/
0.
0-
0,
0+
0*
0)
0(
0'
0&
0%
0$
0#
0C
0D
1E
xF
1G
1H
1I
0J
1K
1L
1M
1N
0O
0P
0Q
0R
0S
0T
0U
0V
0W
0X
0Y
0Z
0[
0\
0]
0^
0_
0`
0a
0b
0c
0d
0e
0f
0g
0h
0i
0j
0k
0l
0m
1n
0o
0p
0q
1r
0s
0t
0u
0v
0w
0x
0y
0z
0{
0|
0}
0~
0!!
0"!
0#!
0$!
0%!
0&!
0'!
0(!
0)!
0*!
0+!
0,!
0-!
0.!
0/!
0O!
0N!
0M!
0L!
0K!
0J!
0I!
0H!
0G!
0F!
0E!
0D!
0C!
0B!
0A!
0@!
0?!
0>!
0=!
0<!
0;!
0:!
09!
08!
07!
06!
05!
04!
03!
02!
01!
00!
$end
#10000
1!
1k
1l
1O!
1K!
1O
0K
0B
1>
1o
1s
#20000
0!
0k
0l
#30000
1!
1k
1l
1N!
1J!
1P
0L
0A
1=
1p
1t
#40000
1"
0!
1m
0k
0l
0t
0s
0r
1q
0n
#50000
1!
1k
1l
1L!
1M!
0O!
0J!
0K!
0O
0P
1K
0M
0N
0?
0@
1B
0=
0>
#60000
0"
0!
0m
0k
0l
0o
1n
#70000
1!
1k
1l
0N!
1O!
0K
1L
1A
0B
0p
1o
#80000
0!
0k
0l
#90000
1!
1k
1l
0M!
1N!
0L
1M
1@
0A
0q
1p
#100000
0!
0k
0l
#110000
1!
1k
1l
0L!
1M!
0M
1N
1?
0@
1r
1q
#120000
0!
0k
0l
#130000
1!
1k
1l
1L!
1K!
1O
0N
0?
1>
0r
1s
#140000
0!
0k
0l
#150000
1!
1k
1l
1J!
0K!
0O
1P
1=
0>
1t
0s
#160000
0!
0k
0l
#170000
1!
1k
1l
1I!
0J!
0P
1Q
1<
0=
1u
0t
#180000
0!
0k
0l
#190000
1!
1k
1l
1H!
0I!
0Q
1R
1;
0<
1v
0u
#200000
0!
0k
0l
#210000
1!
1k
1l
1G!
0H!
0R
1S
1:
0;
1w
0v
#220000
0!
0k
0l
#230000
1!
1k
1l
1F!
0G!
0S
1T
19
0:
1x
0w
#240000
0!
0k
0l
#250000
1!
1k
1l
1E!
0F!
0T
1U
18
09
1y
0x
#260000
0!
0k
0l
#270000
1!
1k
1l
1D!
0E!
0U
1V
17
08
1z
0y
#280000
0!
0k
0l
#290000
1!
1k
1l
1C!
0D!
0V
1W
16
07
1{
0z
#300000
0!
0k
0l
#310000
1!
1k
1l
1B!
0C!
0W
1X
15
06
1|
0{
#320000
0!
0k
0l
#330000
1!
1k
1l
1A!
0B!
0X
1Y
14
05
1}
0|
#340000
0!
0k
0l
#350000
1!
1k
1l
1@!
0A!
0Y
1Z
13
04
1~
0}
#360000
0!
0k
0l
#370000
1!
1k
1l
1?!
0@!
0Z
1[
12
03
1!!
0~
#380000
0!
0k
0l
#390000
1!
1k
1l
1>!
0?!
0[
1\
11
02
1"!
0!!
#400000
0!
0k
0l
#410000
1!
1k
1l
1=!
0>!
0\
1]
10
01
1#!
0"!
#420000
0!
0k
0l
#430000
1!
1k
1l
1<!
0=!
0]
1^
1/
00
1$!
0#!
#440000
0!
0k
0l
#450000
1!
1k
1l
1;!
0<!
0^
1_
1.
0/
1%!
0$!
#460000
0!
0k
0l
#470000
1!
1k
1l
1:!
0;!
0_
1`
1-
0.
1&!
0%!
#480000
0!
0k
0l
#490000
1!
1k
1l
19!
0:!
0`
1a
1,
0-
1'!
0&!
#500000
0!
0k
0l
#510000
1!
1k
1l
18!
09!
0a
1b
1+
0,
1(!
0'!
#520000
0!
0k
0l
#530000
1!
1k
1l
17!
08!
0b
1c
1*
0+
1)!
0(!
#540000
0!
0k
0l
#550000
1!
1k
1l
16!
07!
0c
1d
1)
0*
1*!
0)!
#560000
0!
0k
0l
#570000
1!
1k
1l
15!
06!
0d
1e
1(
0)
1+!
0*!
#580000
0!
0k
0l
#590000
1!
1k
1l
14!
05!
0e
1f
1'
0(
1,!
0+!
#600000
0!
0k
0l
#610000
1!
1k
1l
13!
04!
0f
1g
1&
0'
1-!
0,!
#620000
0!
0k
0l
#630000
1!
1k
1l
12!
03!
0g
1J
1h
1%
1C
0&
1.!
0-!
#640000
0!
0k
0l
#650000
1!
1k
1l
11!
02!
0J
0h
1i
1$
0%
0C
1/!
0.!
#660000
0!
0k
0l
#670000
1!
1k
1l
10!
01!
0i
1j
1#
0$
0/!
#680000
0!
0k
0l
#690000
1!
1k
1l
00!
0j
0#
#700000
0!
0k
0l
#710000
1!
1k
1l
#720000
0!
0k
0l
#730000
1!
1k
1l
#740000
0!
0k
0l
#750000
1!
1k
1l
#760000
0!
0k
0l
#770000
1!
1k
1l
#780000
0!
0k
0l
#790000
1!
1k
1l
#800000
0!
0k
0l
#810000
1!
1k
1l
#820000
0!
0k
0l
#830000
1!
1k
1l
#840000
0!
0k
0l
#850000
1!
1k
1l
#860000
0!
0k
0l
#870000
1!
1k
1l
#880000
0!
0k
0l
#890000
1!
1k
1l
#900000
0!
0k
0l
#910000
1!
1k
1l
#920000
0!
0k
0l
#930000
1!
1k
1l
#940000
0!
0k
0l
#950000
1!
1k
1l
#960000
0!
0k
0l
#970000
1!
1k
1l
#980000
0!
0k
0l
#990000
1!
1k
1l
