projectmain/simulation/qsim/skeleton.msim.vcd
$comment
	File created using the following command:
		vcd file skeleton.msim.vcd -direction
$end
$date
	Wed Dec 05 18:36:48 2018
$end
$version
	ModelSim Version 10.5b
$end
$timescale
	1ps
$end

$scope module targets_printer_tracker_vlg_vec_tst $end
$var reg 1 ! clock $end
$var reg 1 " start $end
$var reg 33 # targetx [32:0] $end
$var reg 33 $ targety [32:0] $end
$var wire 1 % char_data [7] $end
$var wire 1 & char_data [6] $end
$var wire 1 ' char_data [5] $end
$var wire 1 ( char_data [4] $end
$var wire 1 ) char_data [3] $end
$var wire 1 * char_data [2] $end
$var wire 1 + char_data [1] $end
$var wire 1 , char_data [0] $end
$var wire 1 - char_index [7] $end
$var wire 1 . char_index [6] $end
$var wire 1 / char_index [5] $end
$var wire 1 0 char_index [4] $end
$var wire 1 1 char_index [3] $end
$var wire 1 2 char_index [2] $end
$var wire 1 3 char_index [1] $end
$var wire 1 4 char_index [0] $end
$var wire 1 5 finish $end

$scope module i1 $end
$var wire 1 6 gnd $end
$var wire 1 7 vcc $end
$var wire 1 8 unknown $end
$var tri1 1 9 devclrn $end
$var tri1 1 : devpor $end
$var tri1 1 ; devoe $end
$var wire 1 < targetx[4]~input_o $end
$var wire 1 = targetx[5]~input_o $end
$var wire 1 > targetx[6]~input_o $end
$var wire 1 ? targetx[7]~input_o $end
$var wire 1 @ targetx[12]~input_o $end
$var wire 1 A targetx[13]~input_o $end
$var wire 1 B targetx[14]~input_o $end
$var wire 1 C targetx[15]~input_o $end
$var wire 1 D targetx[20]~input_o $end
$var wire 1 E targetx[21]~input_o $end
$var wire 1 F targetx[22]~input_o $end
$var wire 1 G targetx[23]~input_o $end
$var wire 1 H targetx[28]~input_o $end
$var wire 1 I targetx[29]~input_o $end
$var wire 1 J targetx[30]~input_o $end
$var wire 1 K targetx[31]~input_o $end
$var wire 1 L targetx[32]~input_o $end
$var wire 1 M targety[4]~input_o $end
$var wire 1 N targety[5]~input_o $end
$var wire 1 O targety[6]~input_o $end
$var wire 1 P targety[7]~input_o $end
$var wire 1 Q targety[12]~input_o $end
$var wire 1 R targety[13]~input_o $end
$var wire 1 S targety[14]~input_o $end
$var wire 1 T targety[15]~input_o $end
$var wire 1 U targety[20]~input_o $end
$var wire 1 V targety[21]~input_o $end
$var wire 1 W targety[22]~input_o $end
$var wire 1 X targety[23]~input_o $end
$var wire 1 Y targety[28]~input_o $end
$var wire 1 Z targety[29]~input_o $end
$var wire 1 [ targety[30]~input_o $end
$var wire 1 \ targety[31]~input_o $end
$var wire 1 ] targety[32]~input_o $end
$var wire 1 ^ char_index[0]~output_o $end
$var wire 1 _ char_index[1]~output_o $end
$var wire 1 ` char_index[2]~output_o $end
$var wire 1 a char_index[3]~output_o $end
$var wire 1 b char_index[4]~output_o $end
$var wire 1 c char_index[5]~output_o $end
$var wire 1 d char_index[6]~output_o $end
$var wire 1 e char_index[7]~output_o $end
$var wire 1 f char_data[0]~output_o $end
$var wire 1 g char_data[1]~output_o $end
$var wire 1 h char_data[2]~output_o $end
$var wire 1 i char_data[3]~output_o $end
$var wire 1 j char_data[4]~output_o $end
$var wire 1 k char_data[5]~output_o $end
$var wire 1 l char_data[6]~output_o $end
$var wire 1 m char_data[7]~output_o $end
$var wire 1 n finish~output_o $end
$var wire 1 o clock~input_o $end
$var wire 1 p clock~inputclkctrl_outclk $end
$var wire 1 q start~input_o $end
$var wire 1 r Add0~0_combout $end
$var wire 1 s Add0~94_combout $end
$var wire 1 t Add0~3 $end
$var wire 1 u Add0~4_combout $end
$var wire 1 v Add0~93_combout $end
$var wire 1 w Add0~5 $end
$var wire 1 x Add0~6_combout $end
$var wire 1 y Add0~95_combout $end
$var wire 1 z Equal1~2_combout $end
$var wire 1 { Add0~7 $end
$var wire 1 | Add0~8_combout $end
$var wire 1 } Add0~10_combout $end
$var wire 1 ~ Add0~9 $end
$var wire 1 !! Add0~11_combout $end
$var wire 1 "! Add0~13_combout $end
$var wire 1 #! Add0~12 $end
$var wire 1 $! Add0~14_combout $end
$var wire 1 %! Add0~16_combout $end
$var wire 1 &! Add0~15 $end
$var wire 1 '! Add0~17_combout $end
$var wire 1 (! Add0~19_combout $end
$var wire 1 )! Add0~18 $end
$var wire 1 *! Add0~20_combout $end
$var wire 1 +! Add0~22_combout $end
$var wire 1 ,! Add0~21 $end
$var wire 1 -! Add0~23_combout $end
$var wire 1 .! Add0~25_combout $end
$var wire 1 /! Add0~24 $end
$var wire 1 0! Add0~26_combout $end
$var wire 1 1! Add0~28_combout $end
$var wire 1 2! Add0~27 $end
$var wire 1 3! Add0~29_combout $end
$var wire 1 4! Add0~31_combout $end
$var wire 1 5! Add0~30 $end
$var wire 1 6! Add0~32_combout $end
$var wire 1 7! Add0~34_combout $end
$var wire 1 8! Add0~33 $end
$var wire 1 9! Add0~35_combout $end
$var wire 1 :! Add0~37_combout $end
$var wire 1 ;! Add0~36 $end
$var wire 1 <! Add0~38_combout $end
$var wire 1 =! Add0~40_combout $end
$var wire 1 >! Add0~39 $end
$var wire 1 ?! Add0~41_combout $end
$var wire 1 @! Add0~43_combout $end
$var wire 1 A! Add0~42 $end
$var wire 1 B! Add0~44_combout $end
$var wire 1 C! Add0~46_combout $end
$var wire 1 D! Add0~45 $end
$var wire 1 E! Add0~47_combout $end
$var wire 1 F! Add0~49_combout $end
$var wire 1 G! Add0~48 $end
$var wire 1 H! Add0~50_combout $end
$var wire 1 I! Add0~52_combout $end
$var wire 1 J! Add0~51 $end
$var wire 1 K! Add0~53_combout $end
$var wire 1 L! Add0~55_combout $end
$var wire 1 M! Add0~54 $end
$var wire 1 N! Add0~56_combout $end
$var wire 1 O! Add0~58_combout $end
$var wire 1 P! Add0~57 $end
$var wire 1 Q! Add0~59_combout $end
$var wire 1 R! Add0~61_combout $end
$var wire 1 S! Add0~60 $end
$var wire 1 T! Add0~62_combout $end
$var wire 1 U! Add0~64_combout $end
$var wire 1 V! Add0~63 $end
$var wire 1 W! Add0~65_combout $end
$var wire 1 X! Add0~67_combout $end
$var wire 1 Y! Add0~66 $end
$var wire 1 Z! Add0~68_combout $end
$var wire 1 [! Add0~70_combout $end
$var wire 1 \! Add0~69 $end
$var wire 1 ]! Add0~71_combout $end
$var wire 1 ^! Add0~73_combout $end
$var wire 1 _! Add0~72 $end
$var wire 1 `! Add0~74_combout $end
$var wire 1 a! Add0~76_combout $end
$var wire 1 b! Add0~75 $end
$var wire 1 c! Add0~77_combout $end
$var wire 1 d! Add0~79_combout $end
$var wire 1 e! Equal0~6_combout $end
$var wire 1 f! Add0~78 $end
$var wire 1 g! Add0~80_combout $end
$var wire 1 h! Add0~82_combout $end
$var wire 1 i! Add0~81 $end
$var wire 1 j! Add0~83_combout $end
$var wire 1 k! Add0~85_combout $end
$var wire 1 l! Add0~84 $end
$var wire 1 m! Add0~86_combout $end
$var wire 1 n! Add0~88_combout $end
$var wire 1 o! Add0~87 $end
$var wire 1 p! Add0~89_combout $end
$var wire 1 q! Add0~91_combout $end
$var wire 1 r! Equal0~7_combout $end
$var wire 1 s! Equal0~5_combout $end
$var wire 1 t! Equal0~1_combout $end
$var wire 1 u! Equal0~3_combout $end
$var wire 1 v! Equal0~0_combout $end
$var wire 1 w! Equal0~2_combout $end
$var wire 1 x! Equal0~4_combout $end
$var wire 1 y! Equal0~8_combout $end
$var wire 1 z! LessThan0~0_combout $end
$var wire 1 {! count[0]~0_combout $end
$var wire 1 |! Add0~1 $end
$var wire 1 }! Add0~2_combout $end
$var wire 1 ~! Add0~92_combout $end
$var wire 1 !" Equal0~10_combout $end
$var wire 1 "" Equal1~3_combout $end
$var wire 1 #" char_index[1]~0_combout $end
$var wire 1 $" char_index[1]~1_combout $end
$var wire 1 %" Equal8~0_combout $end
$var wire 1 &" char_index[0]~2_combout $end
$var wire 1 '" char_index[0]~reg0_q $end
$var wire 1 (" char_index~3_combout $end
$var wire 1 )" char_index[1]~reg0_q $end
$var wire 1 *" char_index~4_combout $end
$var wire 1 +" char_index[2]~reg0_q $end
$var wire 1 ," char_index~5_combout $end
$var wire 1 -" char_index[3]~reg0_q $end
$var wire 1 ." targetx[24]~input_o $end
$var wire 1 /" Equal1~4_combout $end
$var wire 1 0" targetx[16]~input_o $end
$var wire 1 1" targetx[0]~input_o $end
$var wire 1 2" char_data[0]~0_combout $end
$var wire 1 3" targetx[8]~input_o $end
$var wire 1 4" char_index~6_combout $end
$var wire 1 5" targety[24]~input_o $end
$var wire 1 6" targety[8]~input_o $end
$var wire 1 7" targety[16]~input_o $end
$var wire 1 8" targety[0]~input_o $end
$var wire 1 9" char_index~7_combout $end
$var wire 1 :" char_data[0]~1_combout $end
$var wire 1 ;" char_data~2_combout $end
$var wire 1 <" char_data~3_combout $end
$var wire 1 =" char_data~4_combout $end
$var wire 1 >" char_data~5_combout $end
$var wire 1 ?" char_data~6_combout $end
$var wire 1 @" char_data[0]~reg0_q $end
$var wire 1 A" targetx[25]~input_o $end
$var wire 1 B" targetx[9]~input_o $end
$var wire 1 C" targetx[17]~input_o $end
$var wire 1 D" targetx[1]~input_o $end
$var wire 1 E" targety[25]~input_o $end
$var wire 1 F" targety[17]~input_o $end
$var wire 1 G" targety[1]~input_o $end
$var wire 1 H" targety[9]~input_o $end
$var wire 1 I" char_data~7_combout $end
$var wire 1 J" char_data~8_combout $end
$var wire 1 K" char_data~9_combout $end
$var wire 1 L" char_data~10_combout $end
$var wire 1 M" char_data~11_combout $end
$var wire 1 N" char_data[1]~reg0_q $end
$var wire 1 O" targetx[26]~input_o $end
$var wire 1 P" targetx[18]~input_o $end
$var wire 1 Q" targetx[2]~input_o $end
$var wire 1 R" targetx[10]~input_o $end
$var wire 1 S" targety[10]~input_o $end
$var wire 1 T" targety[26]~input_o $end
$var wire 1 U" targety[2]~input_o $end
$var wire 1 V" targety[18]~input_o $end
$var wire 1 W" char_data~12_combout $end
$var wire 1 X" char_data~13_combout $end
$var wire 1 Y" char_data~14_combout $end
$var wire 1 Z" char_data~15_combout $end
$var wire 1 [" char_data~16_combout $end
$var wire 1 \" char_data[2]~reg0_q $end
$var wire 1 ]" targetx[27]~input_o $end
$var wire 1 ^" targetx[19]~input_o $end
$var wire 1 _" targetx[11]~input_o $end
$var wire 1 `" targetx[3]~input_o $end
$var wire 1 a" targety[19]~input_o $end
$var wire 1 b" targety[27]~input_o $end
$var wire 1 c" targety[11]~input_o $end
$var wire 1 d" targety[3]~input_o $end
$var wire 1 e" char_data~17_combout $end
$var wire 1 f" char_data~18_combout $end
$var wire 1 g" char_data~19_combout $end
$var wire 1 h" char_data~20_combout $end
$var wire 1 i" char_data~21_combout $end
$var wire 1 j" char_data[3]~reg0_q $end
$var wire 1 k" Equal0~9_combout $end
$var wire 1 l" count [31] $end
$var wire 1 m" count [30] $end
$var wire 1 n" count [29] $end
$var wire 1 o" count [28] $end
$var wire 1 p" count [27] $end
$var wire 1 q" count [26] $end
$var wire 1 r" count [25] $end
$var wire 1 s" count [24] $end
$var wire 1 t" count [23] $end
$var wire 1 u" count [22] $end
$var wire 1 v" count [21] $end
$var wire 1 w" count [20] $end
$var wire 1 x" count [19] $end
$var wire 1 y" count [18] $end
$var wire 1 z" count [17] $end
$var wire 1 {" count [16] $end
$var wire 1 |" count [15] $end
$var wire 1 }" count [14] $end
$var wire 1 ~" count [13] $end
$var wire 1 !# count [12] $end
$var wire 1 "# count [11] $end
$var wire 1 ## count [10] $end
$var wire 1 $# count [9] $end
$var wire 1 %# count [8] $end
$var wire 1 &# count [7] $end
$var wire 1 '# count [6] $end
$var wire 1 (# count [5] $end
$var wire 1 )# count [4] $end
$var wire 1 *# count [3] $end
$var wire 1 +# count [2] $end
$var wire 1 ,# count [1] $end
$var wire 1 -# count [0] $end
$upscope $end
$upscope $end
$enddefinitions $end
#0
$dumpvars
0!
0"
b1001000010000000011100000110 #
b101000001000000001100000010 $
0,
0+
0*
0)
1(
1'
0&
0%
04
03
02
01
10
1/
1.
0-
15
06
17
x8
19
1:
1;
0<
0=
0>
0?
0@
0A
0B
0C
0D
0E
0F
0G
0H
0I
0J
0K
0L
0M
0N
0O
0P
0Q
0R
0S
0T
0U
0V
0W
0X
0Y
0Z
0[
0\
0]
0^
0_
0`
0a
1b
1c
1d
0e
0f
0g
0h
0i
1j
1k
0l
0m
1n
0o
0p
0q
0r
1s
1t
0u
0v
0w
1x
0y
1z
1{
0|
0}
0~
0!!
0"!
1#!
0$!
0%!
0&!
0'!
0(!
1)!
0*!
0+!
0,!
0-!
0.!
1/!
00!
01!
02!
03!
04!
15!
06!
07!
08!
09!
0:!
1;!
0<!
0=!
0>!
0?!
0@!
1A!
0B!
0C!
0D!
0E!
0F!
1G!
0H!
0I!
0J!
0K!
0L!
1M!
0N!
0O!
0P!
0Q!
0R!
1S!
0T!
0U!
0V!
0W!
0X!
1Y!
0Z!
0[!
0\!
0]!
0^!
1_!
0`!
0a!
0b!
0c!
0d!
1e!
1f!
0g!
0h!
0i!
0j!
0k!
1l!
0m!
0n!
0o!
0p!
0q!
1r!
1s!
1t!
1u!
1v!
1w!
1x!
1y!
1z!
0{!
1|!
1}!
1~!
1!"
0""
0#"
0$"
0%"
0&"
0'"
1("
0)"
1*"
0+"
1,"
0-"
1."
0/"
00"
01"
02"
13"
14"
15"
16"
07"
08"
09"
0:"
0;"
0<"
0="
0>"
0?"
0@"
0A"
1B"
0C"
1D"
0E"
0F"
1G"
1H"
1I"
1J"
1K"
1L"
1M"
0N"
0O"
0P"
1Q"
1R"
0S"
1T"
0U"
1V"
0W"
0X"
0Y"
0Z"
0["
0\"
1]"
1^"
0_"
0`"
0a"
0b"
0c"
0d"
0e"
0f"
0g"
0h"
0i"
0j"
1k"
0-#
0,#
0+#
0*#
0)#
0(#
0'#
0&#
0%#
0$#
0##
0"#
0!#
0~"
0}"
0|"
0{"
0z"
0y"
0x"
0w"
0v"
0u"
0t"
0s"
0r"
0q"
0p"
0o"
0n"
0m"
0l"
$end
#10000
1!
1o
1p
#20000
0!
0o
0p
#30000
1!
1o
1p
#40000
0!
0o
0p
#50000
1!
1o
1p
#60000
0!
0o
0p
#70000
1!
1o
1p
#80000
1"
0!
1q
0o
0p
0~!
1{!
1y
0s
#90000
1!
1o
1p
1*#
1""
0z!
0x
0k"
0n
1/"
1$"
05
0,"
0("
1i"
0M"
1?"
#100000
0"
0!
0q
0o
0p
1&"
1~!
1s
#110000
1!
1o
1p
1,#
1-#
1j"
1@"
1+"
1`
1f
1i
04"
12"
0/"
0z
0t
0}!
0|!
1r
1)
1,
12
1#"
1g"
1Y"
0L"
1="
1Z"
1u
0~!
1t
1}!
0s
0i"
1M"
0?"
1h"
0Z"
0u
1~!
0M"
1["
1v
1i"
0["
0v
#120000
0!
0o
0p
#130000
1!
1o
1p
0-#
0@"
1'"
1^
0f
02"
1|!
0r
0,
14
1("
0g"
1Z"
0K"
1>"
0t
0}!
1s
0h"
1L"
1u
0~!
1["
1?"
0i"
1M"
1v
#140000
0!
0o
0p
#150000
1!
1o
1p
0,#
1-#
1+#
0j"
1\"
1N"
1@"
1)"
1_
1f
1g
1h
0i
14"
12"
1t
1}!
0|!
1r
1w
0u
0)
1*
1+
1,
13
1,"
0*"
0("
0#"
0Y"
0L"
1K"
0="
0Z"
0>"
0w
1u
1~!
0}!
0s
1x
0v
1Z"
1L"
0x
0~!
0y
0M"
0["
0?"
1v
1y
1["
1M"
#160000
0!
0o
0p
#170000
1!
1o
1p
0-#
0@"
1-"
0+"
0)"
0'"
0^
0_
0`
1a
0f
1:"
19"
02"
1|!
0r
0,
11
02
03
04
1("
1e"
1W"
1<"
1;"
0J"
0Z"
1}!
1s
1X"
1="
0K"
1~!
0["
1Y"
1>"
0L"
1Z"
1?"
0M"
1["
#180000
0!
0o
0p
#190000
1!
1o
1p
1,#
1-#
0N"
1@"
1)"
1_
1f
0g
0t
0}!
0:"
0|!
1r
0+
1,
13
1#"
1w
0u
0~!
0e"
0I"
0;"
1t
1}!
0s
1x
0<"
0w
1u
1~!
0v
0y
0="
0x
1v
0>"
1y
0?"
#200000
0!
0o
0p
#210000
1!
1o
1p
0-#
0@"
1'"
1^
0f
1:"
09"
1|!
0r
0,
14
1*"
0("
0W"
1I"
1<"
0t
0}!
1s
0X"
1J"
1="
1w
0u
0~!
0Y"
1K"
1>"
1x
0v
0Z"
1L"
0y
1?"
0["
1M"
#220000
0!
0o
0p
#230000
1!
1o
1p
0,#
1-#
0*#
0+#
0\"
1N"
1@"
1+"
0)"
0_
1`
1f
1g
0h
0$"
1z
1t
1}!
0:"
1z!
0|!
1r
0""
0{
0x
0w
1u
0*
1+
1,
12
03
1("
0#"
0&"
1%"
0z!
0u
1~!
0<"
0{!
0}!
0s
1|
1y
1{
1x
1v
1&"
1{!
0="
0~!
0|
0y
0v
1}
0>"
0}
0?"
#240000
0!
0o
0p
#250000
1!
1o
1p
0-#
0@"
1)"
0'"
0^
1_
0f
0%"
1z!
1|!
0r
0,
13
04
1k"
1n
0&"
0{!
1}!
1s
15
1~!
#260000
0!
0o
0p
#270000
1!
1o
1p
#280000
0!
0o
0p
#290000
1!
1o
1p
#300000
0!
0o
0p
#310000
1!
1o
1p
#320000
0!
0o
0p
#330000
1!
1o
1p
#340000
0!
0o
0p
#350000
1!
1o
1p
#360000
0!
0o
0p
#370000
1!
1o
1p
#380000
0!
0o
0p
#390000
1!
1o
1p
#400000
0!
0o
0p
#410000
1!
1o
1p
#420000
0!
0o
0p
#430000
1!
1o
1p
#440000
0!
0o
0p
#450000
1!
1o
1p
#460000
0!
0o
0p
#470000
1!
1o
1p
#480000
0!
0o
0p
#490000
1!
1o
1p
#500000
0!
0o
0p
#510000
1!
1o
1p
#520000
0!
0o
0p
#530000
1!
1o
1p
#540000
0!
0o
0p
#550000
1!
1o
1p
#560000
0!
0o
0p
#570000
1!
1o
1p
#580000
0!
0o
0p
#590000
1!
1o
1p
#600000
0!
0o
0p
#610000
1!
1o
1p
#620000
0!
0o
0p
#630000
1!
1o
1p
#640000
0!
0o
0p
#650000
1!
1o
1p
#660000
0!
0o
0p
#670000
1!
1o
1p
#680000
0!
0o
0p
#690000
1!
1o
1p
#700000
0!
0o
0p
#710000
1!
1o
1p
#720000
0!
0o
0p
#730000
1!
1o
1p
#740000
0!
0o
0p
#750000
1!
1o
1p
#760000
0!
0o
0p
#770000
1!
1o
1p
#780000
0!
0o
0p
#790000
1!
1o
1p
#800000
0!
0o
0p
#810000
1!
1o
1p
#820000
0!
0o
0p
#830000
1!
1o
1p
#840000
0!
0o
0p
#850000
1!
1o
1p
#860000
0!
0o
0p
#870000
1!
1o
1p
#880000
0!
0o
0p
#890000
1!
1o
1p
#900000
0!
0o
0p
#910000
1!
1o
1p
#920000
0!
0o
0p
#930000
1!
1o
1p
#940000
0!
0o
0p
#950000
1!
1o
1p
#960000
0!
0o
0p
#970000
1!
1o
1p
#980000
0!
0o
0p
#990000
1!
1o
1p
