projectmain/simulation/qsim/skeleton.msim.vcd
$comment
	File created using the following command:
		vcd file skeleton.msim.vcd -direction
$end
$date
	Sat Dec 01 17:56:46 2018
$end
$version
	ModelSim Version 10.5b
$end
$timescale
	1ps
$end

$scope module ps2_cleaner_vlg_vec_tst $end
$var reg 1 ! clock $end
$var reg 8 " ps2_key_received [7:0] $end
$var reg 8 # ps2_last_key_received [7:0] $end
$var wire 1 $ ascii_character_out [7] $end
$var wire 1 % ascii_character_out [6] $end
$var wire 1 & ascii_character_out [5] $end
$var wire 1 ' ascii_character_out [4] $end
$var wire 1 ( ascii_character_out [3] $end
$var wire 1 ) ascii_character_out [2] $end
$var wire 1 * ascii_character_out [1] $end
$var wire 1 + ascii_character_out [0] $end
$var wire 1 , key_just_pressed $end

$scope module i1 $end
$var wire 1 - gnd $end
$var wire 1 . vcc $end
$var wire 1 / unknown $end
$var tri1 1 0 devclrn $end
$var tri1 1 1 devpor $end
$var tri1 1 2 devoe $end
$var wire 1 3 ascii_character_out[0]~output_o $end
$var wire 1 4 ascii_character_out[1]~output_o $end
$var wire 1 5 ascii_character_out[2]~output_o $end
$var wire 1 6 ascii_character_out[3]~output_o $end
$var wire 1 7 ascii_character_out[4]~output_o $end
$var wire 1 8 ascii_character_out[5]~output_o $end
$var wire 1 9 ascii_character_out[6]~output_o $end
$var wire 1 : ascii_character_out[7]~output_o $end
$var wire 1 ; key_just_pressed~output_o $end
$var wire 1 < ps2_key_received[7]~input_o $end
$var wire 1 = ps2_key_received[5]~input_o $end
$var wire 1 > ps2_key_received[4]~input_o $end
$var wire 1 ? ps2_key_received[6]~input_o $end
$var wire 1 @ comb_15|Equal8~0_combout $end
$var wire 1 A ps2_key_received[1]~input_o $end
$var wire 1 B ps2_key_received[0]~input_o $end
$var wire 1 C ps2_key_received[3]~input_o $end
$var wire 1 D comb_15|out[0]~8_combout $end
$var wire 1 E comb_15|out[0]~5_combout $end
$var wire 1 F comb_15|out[0]~6_combout $end
$var wire 1 G ps2_key_received[2]~input_o $end
$var wire 1 H comb_15|out[0]~7_combout $end
$var wire 1 I comb_15|out[0]~9_combout $end
$var wire 1 J comb_15|Equal0~0_combout $end
$var wire 1 K comb_15|out[0]~4_combout $end
$var wire 1 L comb_15|out[0]~10_combout $end
$var wire 1 M comb_15|out[1]~11_combout $end
$var wire 1 N comb_15|out[1]~12_combout $end
$var wire 1 O comb_15|out[1]~13_combout $end
$var wire 1 P comb_15|out[1]~15_combout $end
$var wire 1 Q comb_15|Equal12~0_combout $end
$var wire 1 R comb_15|out[1]~14_combout $end
$var wire 1 S comb_15|out[1]~16_combout $end
$var wire 1 T comb_15|out[2]~18_combout $end
$var wire 1 U comb_15|out[2]~17_combout $end
$var wire 1 V comb_15|out[2]~19_combout $end
$var wire 1 W comb_15|Equal0~1_combout $end
$var wire 1 X comb_15|out[2]~20_combout $end
$var wire 1 Y comb_15|out[2]~21_combout $end
$var wire 1 Z comb_15|out[2]~22_combout $end
$var wire 1 [ comb_15|out[2]~23_combout $end
$var wire 1 \ comb_15|out[3]~24_combout $end
$var wire 1 ] comb_15|out[3]~25_combout $end
$var wire 1 ^ comb_15|out[3]~26_combout $end
$var wire 1 _ comb_15|Equal1~0_combout $end
$var wire 1 ` comb_15|out[3]~38_combout $end
$var wire 1 a comb_15|out[3]~27_combout $end
$var wire 1 b comb_15|Equal0~2_combout $end
$var wire 1 c comb_15|Equal0~3_combout $end
$var wire 1 d comb_15|Equal4~0_combout $end
$var wire 1 e comb_15|out[4]~34_combout $end
$var wire 1 f comb_15|out[4]~40_combout $end
$var wire 1 g comb_15|out[4]~33_combout $end
$var wire 1 h comb_15|out[4]~41_combout $end
$var wire 1 i comb_15|out[4]~39_combout $end
$var wire 1 j comb_15|out[4]~35_combout $end
$var wire 1 k comb_15|out~30_combout $end
$var wire 1 l comb_15|out~31_combout $end
$var wire 1 m comb_15|Equal20~0_combout $end
$var wire 1 n comb_15|out~28_combout $end
$var wire 1 o comb_15|out~29_combout $end
$var wire 1 p comb_15|out~32_combout $end
$var wire 1 q comb_15|out[4]~36_combout $end
$var wire 1 r comb_15|out[6]~37_combout $end
$var wire 1 s clock~input_o $end
$var wire 1 t clock~inputclkctrl_outclk $end
$var wire 1 u ps2_last_key_received[0]~input_o $end
$var wire 1 v ps2_last_key_received[2]~input_o $end
$var wire 1 w ps2_last_key_received[1]~input_o $end
$var wire 1 x ps2_last_key_received[3]~input_o $end
$var wire 1 y Equal0~0_combout $end
$var wire 1 z ps2_last_key_received[6]~input_o $end
$var wire 1 { ps2_last_key_received[5]~input_o $end
$var wire 1 | ps2_last_key_received[7]~input_o $end
$var wire 1 } ps2_last_key_received[4]~input_o $end
$var wire 1 ~ Equal0~1_combout $end
$var wire 1 !! Equal0~2_combout $end
$var wire 1 "! last_good_key~q $end
$var wire 1 #! key_just_pressed~0_combout $end
$var wire 1 $! key_just_pressed~reg0_q $end
$upscope $end
$upscope $end
$enddefinitions $end
#0
$dumpvars
0!
b11110000 "
b0 #
0+
0*
0)
0(
0'
0&
0%
0$
0,
0-
1.
x/
10
11
12
03
04
05
06
07
08
09
0:
0;
1<
1=
1>
1?
0@
0A
0B
0C
1D
0E
1F
0G
0H
0I
0J
0K
0L
0M
0N
0O
0P
0Q
0R
0S
0T
1U
0V
0W
0X
0Y
0Z
0[
0\
0]
0^
0_
1`
0a
0b
0c
0d
1e
1f
0g
1h
1i
1j
0k
0l
0m
0n
0o
0p
0q
0r
0s
0t
0u
0v
0w
0x
1y
0z
0{
0|
0}
0~
0!!
0"!
0#!
0$!
$end
#10000
1!
1s
1t
#20000
0!
0s
0t
#30000
1!
1s
1t
#40000
0!
0s
0t
#50000
1!
1s
1t
#60000
0!
0s
0t
#70000
1!
1s
1t
#80000
0!
0s
0t
#90000
1!
1s
1t
#100000
0!
0s
0t
#110000
1!
1s
1t
#120000
b1110000 "
b110000 "
b10000 "
b11000 "
b11100 "
b10000000 #
b11000000 #
b11100000 #
b11110000 #
0!
1}
1{
1z
1|
1G
1C
0=
0?
0<
0s
0t
1~
1g
1b
1Z
0U
1T
1H
0`
1W
0F
1J
1a
16
1c
1I
1(
1#!
1!!
0a
06
0j
0(
1L
13
1+
1r
19
1%
#130000
1!
1s
1t
1"!
1$!
1;
1,
0#!
#140000
0!
0s
0t
#150000
1!
1s
1t
0$!
0;
0,
#160000
0!
0s
0t
#170000
1!
1s
1t
#180000
0!
0s
0t
#190000
1!
1s
1t
#200000
0!
0s
0t
#210000
1!
1s
1t
#220000
b1100 "
b100 "
b0 "
b1110000 #
b110000 #
b10000 #
b0 #
0!
0}
0{
0z
0|
0G
0C
0>
0s
0t
0~
0g
0b
0Z
0T
0H
0W
0D
0c
0I
0!!
1j
0L
03
0+
0r
09
0%
#230000
1!
1s
1t
0"!
#240000
0!
0s
0t
#250000
1!
1s
1t
#260000
0!
0s
0t
#270000
1!
1s
1t
#280000
0!
0s
0t
#290000
1!
1s
1t
#300000
0!
0s
0t
#310000
1!
1s
1t
#320000
0!
0s
0t
#330000
1!
1s
1t
#340000
0!
0s
0t
#350000
1!
1s
1t
#360000
0!
0s
0t
#370000
1!
1s
1t
#380000
0!
0s
0t
#390000
1!
1s
1t
#400000
0!
0s
0t
#410000
1!
1s
1t
#420000
0!
0s
0t
#430000
1!
1s
1t
#440000
0!
0s
0t
#450000
1!
1s
1t
#460000
0!
0s
0t
#470000
1!
1s
1t
#480000
0!
0s
0t
#490000
1!
1s
1t
#500000
0!
0s
0t
#510000
1!
1s
1t
#520000
0!
0s
0t
#530000
1!
1s
1t
#540000
0!
0s
0t
#550000
1!
1s
1t
#560000
0!
0s
0t
#570000
1!
1s
1t
#580000
0!
0s
0t
#590000
1!
1s
1t
#600000
0!
0s
0t
#610000
1!
1s
1t
#620000
0!
0s
0t
#630000
1!
1s
1t
#640000
0!
0s
0t
#650000
1!
1s
1t
#660000
0!
0s
0t
#670000
1!
1s
1t
#680000
0!
0s
0t
#690000
1!
1s
1t
#700000
0!
0s
0t
#710000
1!
1s
1t
#720000
0!
0s
0t
#730000
1!
1s
1t
#740000
0!
0s
0t
#750000
1!
1s
1t
#760000
0!
0s
0t
#770000
1!
1s
1t
#780000
0!
0s
0t
#790000
1!
1s
1t
#800000
0!
0s
0t
#810000
1!
1s
1t
#820000
0!
0s
0t
#830000
1!
1s
1t
#840000
0!
0s
0t
#850000
1!
1s
1t
#860000
0!
0s
0t
#870000
1!
1s
1t
#880000
0!
0s
0t
#890000
1!
1s
1t
#900000
0!
0s
0t
#910000
1!
1s
1t
#920000
0!
0s
0t
#930000
1!
1s
1t
#940000
0!
0s
0t
#950000
1!
1s
1t
#960000
0!
0s
0t
#970000
1!
1s
1t
#980000
0!
0s
0t
#990000
1!
1s
1t
